<svg width="320" height="601" viewBox="0 0 320 601" fill="none" xmlns="http://www.w3.org/2000/svg">
    <path fill-rule="evenodd" clip-rule="evenodd" d="M0.000242233 157.5L0.000211716 0.5C66.2805 2.13526 320 0 320 0V283.5V423L320.155 592.241C266.394 625.038 195.033 546.183 128.799 549.696C50.0916 553.871 30.5001 617 -0.00012207 592.241L-0.000116348 408L0.000242233 157.5Z" fill="#FEF4F3"/>
    <g opacity="0.88">
        <g opacity="0.79">
            <path opacity="0.6" d="M274.981 462.694L271.443 462.468C271.443 461.285 271.351 460.119 271.234 458.965L274.722 458.321C275.141 458.244 275.541 458.084 275.899 457.852C276.256 457.62 276.565 457.32 276.807 456.968C277.049 456.617 277.219 456.221 277.308 455.803C277.397 455.386 277.403 454.955 277.326 454.536C277.248 454.116 277.089 453.715 276.857 453.357C276.625 452.999 276.325 452.69 275.974 452.448C275.623 452.206 275.228 452.036 274.811 451.947C274.394 451.858 273.963 451.851 273.544 451.929L270.069 452.573C269.643 450.948 269.116 449.352 268.49 447.794L271.635 446.214C272.016 446.022 272.356 445.756 272.635 445.433C272.913 445.109 273.126 444.734 273.259 444.328C273.393 443.923 273.446 443.495 273.414 443.068C273.383 442.642 273.268 442.227 273.076 441.845C272.884 441.464 272.619 441.124 272.296 440.845C271.972 440.566 271.597 440.353 271.192 440.219C270.787 440.085 270.359 440.033 269.934 440.064C269.508 440.096 269.093 440.211 268.712 440.403L265.554 441.992C264.886 440.888 264.155 439.826 263.386 438.793L266.055 436.452C266.663 435.873 267.024 435.082 267.062 434.243C267.1 433.404 266.812 432.582 266.259 431.951C265.706 431.319 264.93 430.927 264.094 430.855C263.258 430.783 262.427 431.037 261.774 431.565L259.105 433.906C258.248 433.07 257.355 432.274 256.428 431.519L258.441 428.593C258.683 428.241 258.853 427.845 258.943 427.428C259.032 427.01 259.038 426.579 258.96 426.159C258.883 425.739 258.724 425.339 258.492 424.981C258.26 424.622 257.959 424.313 257.608 424.071C257.257 423.829 256.861 423.659 256.444 423.57C256.027 423.48 255.596 423.474 255.177 423.552C254.758 423.629 254.357 423.789 254 424.021C253.642 424.253 253.333 424.554 253.091 424.905L251.082 427.832C249.788 427.082 248.454 426.406 247.085 425.804L248.242 422.46C248.382 422.056 248.441 421.63 248.415 421.204C248.39 420.778 248.281 420.361 248.095 419.977C247.909 419.593 247.649 419.249 247.33 418.966C247.012 418.682 246.64 418.465 246.237 418.325C245.834 418.185 245.408 418.126 244.982 418.152C244.557 418.177 244.14 418.286 243.757 418.472C243.373 418.658 243.03 418.918 242.747 419.238C242.464 419.557 242.246 419.928 242.107 420.332L240.946 423.676C239.636 423.331 238.311 423.052 236.974 422.84L237.237 419.312C237.269 418.886 237.216 418.458 237.083 418.052C236.95 417.647 236.738 417.272 236.459 416.948C236.181 416.625 235.842 416.359 235.461 416.167C235.08 415.974 234.665 415.859 234.24 415.827C233.815 415.795 233.387 415.848 232.982 415.981C232.577 416.115 232.202 416.327 231.879 416.605C231.556 416.884 231.29 417.223 231.098 417.604C230.906 417.986 230.791 418.401 230.759 418.827L230.496 422.363C228.876 422.372 227.258 422.477 225.651 422.677L224.933 419.207C224.746 418.373 224.239 417.646 223.522 417.183C222.804 416.72 221.933 416.558 221.097 416.733C220.262 416.908 219.528 417.405 219.055 418.116C218.583 418.828 218.409 419.698 218.572 420.537L219.29 424.006C218.141 424.341 217.022 424.73 215.915 425.164L214.366 421.97C213.99 421.194 213.321 420.6 212.507 420.317C211.693 420.034 210.8 420.087 210.024 420.463C209.249 420.84 208.655 421.509 208.372 422.324C208.09 423.139 208.143 424.033 208.519 424.809L210.064 428.003C208.766 428.769 207.511 429.607 206.305 430.512L203.958 427.844C203.676 427.524 203.334 427.262 202.951 427.074C202.568 426.886 202.152 426.776 201.726 426.749C201.3 426.722 200.874 426.779 200.47 426.917C200.066 427.055 199.694 427.272 199.374 427.554C199.054 427.836 198.793 428.178 198.605 428.562C198.417 428.945 198.306 429.362 198.28 429.788C198.253 430.214 198.31 430.641 198.448 431.045C198.586 431.449 198.802 431.822 199.084 432.142L201.431 434.809C200.495 435.775 199.606 436.782 198.766 437.836L195.843 435.867C195.488 435.629 195.091 435.464 194.673 435.381C194.255 435.297 193.824 435.297 193.406 435.379C192.988 435.462 192.59 435.627 192.235 435.864C191.88 436.1 191.575 436.405 191.338 436.759C191.101 437.114 190.936 437.512 190.852 437.931C190.769 438.349 190.768 438.78 190.851 439.199C190.934 439.617 191.098 440.016 191.335 440.371C191.572 440.726 191.876 441.031 192.23 441.268L195.154 443.233C194.521 444.348 193.944 445.509 193.42 446.716L190.079 445.553C189.674 445.403 189.243 445.334 188.811 445.352C188.379 445.37 187.955 445.475 187.563 445.659C187.172 445.843 186.822 446.104 186.532 446.425C186.243 446.747 186.02 447.123 185.878 447.532C185.736 447.94 185.676 448.373 185.703 448.805C185.73 449.237 185.843 449.659 186.035 450.047C186.227 450.435 186.495 450.78 186.822 451.063C187.149 451.346 187.529 451.561 187.941 451.695L191.282 452.861C190.901 454.332 190.603 455.822 190.388 457.326L186.859 457.1C186.015 457.073 185.194 457.375 184.569 457.942C183.944 458.51 183.564 459.299 183.51 460.142C183.456 460.985 183.731 461.816 184.278 462.459C184.826 463.103 185.601 463.508 186.441 463.589L189.979 463.814C189.979 464.993 190.075 466.16 190.188 467.318L186.7 467.962C186.26 468.015 185.835 468.159 185.452 468.383C185.069 468.607 184.736 468.908 184.473 469.266C184.211 469.624 184.024 470.032 183.925 470.465C183.826 470.898 183.817 471.346 183.898 471.783C183.979 472.22 184.148 472.635 184.396 473.004C184.643 473.373 184.963 473.687 185.336 473.927C185.71 474.167 186.128 474.328 186.566 474.4C187.004 474.472 187.452 474.453 187.882 474.345L191.357 473.706C191.787 475.33 192.319 476.926 192.948 478.484L189.803 480.069C189.422 480.261 189.083 480.526 188.805 480.85C188.526 481.173 188.314 481.548 188.18 481.954C188.047 482.359 187.994 482.787 188.026 483.213C188.057 483.639 188.173 484.054 188.365 484.435C188.556 484.817 188.822 485.156 189.145 485.435C189.468 485.714 189.843 485.926 190.248 486.06C190.653 486.194 191.08 486.246 191.506 486.215C191.931 486.183 192.346 486.068 192.727 485.876L195.884 484.287C196.553 485.391 197.284 486.453 198.052 487.481L195.383 489.822C194.763 490.398 194.392 491.194 194.349 492.04C194.306 492.885 194.594 493.715 195.152 494.351C195.71 494.988 196.494 495.381 197.338 495.448C198.181 495.515 199.017 495.25 199.668 494.709L202.337 492.368C203.195 493.204 204.087 494 205.014 494.755L203.001 497.682C202.558 498.392 202.405 499.246 202.575 500.066C202.745 500.886 203.224 501.609 203.913 502.084C204.602 502.559 205.447 502.75 206.273 502.617C207.099 502.484 207.842 502.037 208.347 501.369L210.356 498.443C211.65 499.192 212.985 499.869 214.353 500.47L213.192 503.815C213.032 504.223 212.956 504.659 212.968 505.097C212.98 505.535 213.081 505.967 213.264 506.365C213.447 506.763 213.709 507.12 214.033 507.415C214.358 507.709 214.738 507.935 215.152 508.078C215.566 508.222 216.005 508.28 216.442 508.25C216.879 508.219 217.305 508.101 217.695 507.901C218.085 507.702 218.43 507.426 218.711 507.089C218.992 506.752 219.201 506.362 219.328 505.943L220.485 502.598C221.794 502.943 223.119 503.222 224.456 503.434L224.193 506.963C224.157 507.807 224.45 508.633 225.011 509.264C225.573 509.896 226.357 510.284 227.199 510.347C228.042 510.409 228.875 510.141 229.523 509.599C230.171 509.057 230.583 508.284 230.671 507.444L230.934 503.911C232.555 503.902 234.175 503.797 235.783 503.597L236.502 507.067C236.677 507.911 237.179 508.651 237.899 509.123C238.619 509.596 239.497 509.763 240.34 509.588C241.183 509.413 241.922 508.91 242.394 508.189C242.866 507.469 243.033 506.59 242.858 505.746L242.14 502.276C243.289 501.942 244.408 501.553 245.515 501.118L247.064 504.312C247.25 504.697 247.51 505.04 247.829 505.324C248.148 505.608 248.52 505.826 248.923 505.966C249.326 506.106 249.753 506.165 250.179 506.14C250.605 506.115 251.022 506.006 251.406 505.819C251.79 505.633 252.133 505.373 252.417 505.053C252.7 504.734 252.918 504.362 253.058 503.959C253.198 503.555 253.257 503.128 253.232 502.701C253.206 502.275 253.098 501.858 252.911 501.474L251.366 498.296C252.664 497.53 253.919 496.693 255.125 495.788L257.472 498.455C257.754 498.775 258.096 499.037 258.479 499.225C258.862 499.413 259.278 499.524 259.704 499.551C260.13 499.578 260.557 499.52 260.96 499.382C261.364 499.244 261.736 499.028 262.056 498.746C262.376 498.464 262.638 498.121 262.825 497.738C263.013 497.354 263.124 496.938 263.151 496.512C263.178 496.086 263.12 495.659 262.982 495.255C262.844 494.851 262.628 494.478 262.346 494.157L259.999 491.49C260.931 490.524 261.824 489.517 262.664 488.463L265.587 490.433C265.942 490.67 266.339 490.835 266.757 490.919C267.176 491.003 267.606 491.003 268.024 490.92C268.443 490.837 268.84 490.673 269.195 490.436C269.55 490.199 269.855 489.895 270.092 489.54C270.329 489.185 270.494 488.787 270.578 488.369C270.661 487.95 270.662 487.519 270.579 487.101C270.496 486.682 270.332 486.284 270.095 485.929C269.859 485.574 269.554 485.269 269.2 485.031L266.277 483.066C266.909 481.951 267.486 480.791 268.01 479.584L271.351 480.746C271.754 480.887 272.18 480.946 272.606 480.922C273.031 480.898 273.448 480.79 273.832 480.604C274.216 480.418 274.56 480.159 274.843 479.84C275.127 479.522 275.345 479.151 275.486 478.748C275.626 478.345 275.686 477.918 275.662 477.492C275.637 477.066 275.529 476.649 275.344 476.264C275.159 475.88 274.899 475.536 274.581 475.252C274.263 474.968 273.892 474.749 273.489 474.609L270.148 473.442C270.534 471.968 270.836 470.473 271.055 468.965L274.584 469.191C275.009 469.218 275.436 469.161 275.84 469.024C276.244 468.886 276.616 468.67 276.937 468.388C277.257 468.106 277.519 467.764 277.707 467.381C277.895 466.998 278.006 466.582 278.034 466.156C278.061 465.73 278.004 465.302 277.867 464.898C277.729 464.494 277.514 464.121 277.232 463.8C276.95 463.48 276.609 463.218 276.226 463.029C275.843 462.841 275.427 462.73 275.001 462.702L274.981 462.694ZM236.577 428.166C241.53 428.999 246.249 430.876 250.421 433.674C254.594 436.471 258.125 440.124 260.78 444.391L246.676 451.498C243.925 447.73 239.93 445.057 235.399 443.952L236.577 428.166ZM230.099 427.698L228.93 443.446C224.124 443.882 219.645 446.067 216.341 449.588L203.227 440.808C206.477 436.791 210.568 433.535 215.21 431.27C219.853 429.005 224.935 427.786 230.099 427.698ZM197.743 476.08C196.25 472.273 195.431 468.234 195.321 464.145L195.738 457.656C196.361 453.638 197.673 449.759 199.618 446.189L212.737 454.968C212.198 456.148 211.778 457.379 211.484 458.643L211.066 465.131C211.197 466.435 211.457 467.722 211.843 468.973L197.743 476.08ZM224.866 498.108C219.913 497.276 215.195 495.399 211.022 492.602C206.849 489.806 203.318 486.154 200.662 481.887L214.767 474.78C217.517 478.551 221.512 481.225 226.044 482.33L224.866 498.108ZM230.621 471.958C228.874 471.939 227.172 471.402 225.73 470.414C224.288 469.427 223.171 468.033 222.52 466.41C221.869 464.787 221.714 463.007 222.074 461.296C222.433 459.584 223.292 458.018 224.541 456.795C225.79 455.573 227.374 454.748 229.091 454.426C230.808 454.104 232.583 454.299 234.189 454.986C235.796 455.674 237.163 456.822 238.117 458.287C239.071 459.752 239.57 461.468 239.551 463.217C239.538 464.378 239.297 465.525 238.841 466.592C238.386 467.66 237.725 468.628 236.895 469.439C236.066 470.251 235.085 470.892 234.009 471.324C232.932 471.756 231.781 471.972 230.621 471.958ZM231.339 498.56L232.509 482.811C237.313 482.383 241.794 480.205 245.101 476.691L258.216 485.47C254.966 489.488 250.875 492.744 246.233 495.009C241.59 497.274 236.508 498.493 231.344 498.581L231.339 498.56ZM265.717 468.614C265.094 472.63 263.781 476.509 261.837 480.077L248.718 471.298C249.257 470.119 249.677 468.889 249.971 467.627L250.389 461.139C250.259 459.835 249.999 458.548 249.612 457.297L263.72 450.19C265.213 453.998 266.033 458.036 266.143 462.125L265.717 468.614Z" fill="#B8B8E8"/>
        </g>
        <g opacity="0.77">
            <path opacity="0.6" d="M163.04 402.301L161.01 402.171C161.01 401.494 160.956 400.821 160.889 400.16L162.889 399.792C163.13 399.748 163.36 399.656 163.565 399.523C163.771 399.39 163.948 399.217 164.087 399.015C164.226 398.813 164.323 398.586 164.375 398.346C164.426 398.107 164.429 397.859 164.385 397.618C164.34 397.377 164.249 397.147 164.116 396.942C163.982 396.736 163.81 396.559 163.608 396.42C163.407 396.281 163.18 396.183 162.94 396.132C162.701 396.081 162.454 396.077 162.213 396.122L160.216 396.489C159.971 395.557 159.667 394.641 159.306 393.747L161.11 392.84C161.33 392.73 161.525 392.578 161.686 392.392C161.847 392.207 161.969 391.992 162.047 391.759C162.124 391.526 162.155 391.28 162.138 391.035C162.121 390.79 162.055 390.551 161.946 390.331C161.836 390.112 161.684 389.916 161.499 389.755C161.313 389.594 161.098 389.471 160.866 389.394C160.633 389.316 160.387 389.285 160.143 389.303C159.898 389.32 159.659 389.385 159.44 389.495L157.627 390.407C157.243 389.775 156.825 389.152 156.374 388.571L157.907 387.229C158.278 386.903 158.505 386.442 158.537 385.948C158.569 385.454 158.404 384.968 158.078 384.596C157.752 384.224 157.291 383.997 156.798 383.964C156.304 383.932 155.818 384.098 155.447 384.424L153.914 385.77C153.421 385.291 152.909 384.834 152.377 384.399L153.534 382.727C153.673 382.525 153.77 382.298 153.821 382.058C153.873 381.819 153.876 381.571 153.832 381.331C153.787 381.09 153.696 380.86 153.563 380.654C153.43 380.449 153.257 380.272 153.056 380.133C152.854 379.994 152.627 379.896 152.388 379.845C152.149 379.794 151.902 379.79 151.661 379.835C151.42 379.879 151.191 379.971 150.985 380.104C150.78 380.237 150.603 380.41 150.464 380.611L149.311 382.284C148.569 381.854 147.804 381.466 147.018 381.121L147.683 379.198C147.763 378.967 147.796 378.722 147.782 378.478C147.767 378.233 147.705 377.994 147.598 377.774C147.491 377.553 147.342 377.356 147.159 377.194C146.976 377.031 146.763 376.906 146.532 376.826C146.301 376.746 146.056 376.712 145.812 376.726C145.568 376.741 145.329 376.803 145.108 376.91C144.888 377.017 144.691 377.167 144.529 377.35C144.367 377.533 144.242 377.746 144.162 377.978L143.498 379.901C142.746 379.704 141.985 379.544 141.217 379.424L141.368 377.401C141.386 377.156 141.355 376.911 141.279 376.678C141.202 376.446 141.08 376.23 140.921 376.045C140.598 375.67 140.14 375.439 139.647 375.402C139.154 375.366 138.667 375.527 138.292 375.85C137.918 376.173 137.687 376.631 137.65 377.125L137.5 379.152C136.57 379.157 135.641 379.217 134.718 379.332L134.301 377.342C134.201 376.858 133.912 376.433 133.499 376.161C133.086 375.889 132.582 375.793 132.098 375.894C131.614 375.994 131.189 376.283 130.918 376.696C130.646 377.11 130.55 377.614 130.65 378.099L131.068 380.089C130.408 380.281 129.765 380.507 129.13 380.754L128.241 378.922C128.144 378.686 128.001 378.472 127.818 378.293C127.636 378.114 127.419 377.975 127.181 377.884C126.942 377.793 126.688 377.751 126.433 377.763C126.178 377.774 125.928 377.838 125.699 377.949C125.47 378.061 125.266 378.219 125.1 378.413C124.934 378.607 124.81 378.833 124.735 379.077C124.66 379.322 124.636 379.578 124.664 379.832C124.692 380.086 124.772 380.331 124.899 380.553L125.789 382.388C125.046 382.826 124.328 383.305 123.638 383.822L122.289 382.292C121.962 381.921 121.501 381.694 121.008 381.663C120.514 381.632 120.029 381.798 119.658 382.125C119.287 382.452 119.061 382.913 119.029 383.407C118.998 383.901 119.164 384.387 119.491 384.759L120.84 386.289C120.305 386.845 119.791 387.422 119.311 388.028L117.64 386.895C117.437 386.758 117.208 386.662 116.968 386.613C116.727 386.564 116.48 386.563 116.239 386.61C115.752 386.705 115.324 386.989 115.047 387.401C114.77 387.812 114.667 388.317 114.762 388.804C114.857 389.29 115.141 389.72 115.552 389.997L117.223 391.126C116.861 391.772 116.529 392.438 116.229 393.124L114.316 392.459C114.085 392.379 113.84 392.344 113.595 392.358C113.351 392.372 113.112 392.434 112.891 392.541C112.671 392.647 112.473 392.796 112.31 392.979C112.147 393.162 112.022 393.375 111.941 393.607C111.861 393.838 111.827 394.083 111.84 394.328C111.854 394.573 111.916 394.812 112.023 395.033C112.129 395.254 112.278 395.451 112.461 395.614C112.644 395.777 112.857 395.903 113.088 395.984L115.009 396.652C114.787 397.499 114.613 398.357 114.487 399.224L112.461 399.094C111.968 399.062 111.482 399.228 111.111 399.555C110.74 399.882 110.513 400.343 110.482 400.837C110.45 401.331 110.616 401.818 110.943 402.189C111.269 402.561 111.73 402.787 112.223 402.819L114.253 402.949C114.253 403.626 114.307 404.295 114.374 404.959L112.374 405.327C112.133 405.372 111.903 405.463 111.698 405.597C111.492 405.73 111.315 405.902 111.176 406.104C111.037 406.306 110.94 406.533 110.889 406.773C110.837 407.013 110.834 407.26 110.878 407.501C110.923 407.742 111.014 407.972 111.148 408.178C111.281 408.383 111.453 408.561 111.655 408.7C111.856 408.839 112.083 408.937 112.323 408.988C112.562 409.039 112.81 409.042 113.05 408.998L115.047 408.63C115.294 409.562 115.6 410.478 115.961 411.372L114.157 412.28C113.938 412.389 113.742 412.541 113.581 412.727C113.421 412.912 113.298 413.128 113.22 413.361C113.143 413.594 113.112 413.84 113.129 414.084C113.147 414.329 113.212 414.568 113.322 414.788C113.431 415.008 113.583 415.203 113.769 415.364C113.954 415.525 114.169 415.648 114.402 415.726C114.634 415.803 114.88 415.834 115.125 415.817C115.37 415.799 115.608 415.734 115.828 415.624L117.64 414.713C118.025 415.344 118.442 415.967 118.893 416.548L117.361 417.894C117.177 418.056 117.026 418.252 116.918 418.472C116.81 418.692 116.746 418.931 116.73 419.176C116.714 419.42 116.746 419.666 116.825 419.898C116.904 420.13 117.028 420.344 117.189 420.528C117.351 420.712 117.547 420.863 117.767 420.971C117.986 421.079 118.225 421.143 118.469 421.159C118.714 421.175 118.959 421.143 119.191 421.064C119.423 420.985 119.637 420.861 119.821 420.699L121.353 419.353C121.846 419.833 122.359 420.29 122.89 420.725L121.733 422.397C121.595 422.599 121.497 422.826 121.446 423.065C121.395 423.305 121.391 423.552 121.436 423.793C121.48 424.034 121.572 424.264 121.705 424.469C121.838 424.675 122.01 424.852 122.212 424.991C122.413 425.13 122.64 425.228 122.879 425.279C123.119 425.33 123.366 425.333 123.606 425.289C123.847 425.244 124.077 425.153 124.282 425.02C124.487 424.886 124.664 424.714 124.803 424.512L125.956 422.84C126.698 423.269 127.464 423.657 128.249 424.002L127.585 425.925C127.505 426.157 127.471 426.402 127.486 426.647C127.5 426.892 127.563 427.131 127.67 427.352C127.777 427.572 127.926 427.769 128.109 427.932C128.293 428.095 128.506 428.22 128.738 428.3C128.969 428.38 129.214 428.414 129.458 428.399C129.703 428.385 129.942 428.322 130.162 428.215C130.383 428.108 130.58 427.958 130.742 427.775C130.905 427.591 131.03 427.378 131.11 427.146L131.774 425.223C132.526 425.42 133.287 425.579 134.054 425.7L133.904 427.723C133.867 428.216 134.028 428.704 134.351 429.079C134.674 429.454 135.132 429.685 135.625 429.721C136.118 429.758 136.605 429.597 136.979 429.274C137.354 428.951 137.585 428.492 137.621 427.999L137.763 425.971C138.693 425.966 139.622 425.906 140.545 425.791L140.962 427.781C141.012 428.021 141.108 428.249 141.246 428.452C141.384 428.654 141.56 428.828 141.764 428.962C141.969 429.097 142.198 429.19 142.438 429.236C142.679 429.282 142.926 429.28 143.166 429.23C143.405 429.18 143.633 429.084 143.835 428.946C144.038 428.808 144.211 428.632 144.345 428.427C144.48 428.223 144.573 427.993 144.618 427.753C144.664 427.512 144.662 427.265 144.613 427.025L144.195 425.035C144.855 424.842 145.498 424.617 146.133 424.37L147.023 426.201C147.119 426.438 147.263 426.652 147.445 426.831C147.627 427.009 147.844 427.148 148.082 427.24C148.321 427.331 148.575 427.372 148.83 427.361C149.085 427.35 149.335 427.286 149.564 427.174C149.793 427.062 149.997 426.904 150.163 426.71C150.329 426.516 150.453 426.29 150.528 426.046C150.603 425.802 150.627 425.545 150.599 425.291C150.571 425.038 150.491 424.792 150.364 424.571L149.474 422.735C150.217 422.298 150.935 421.819 151.625 421.301L152.974 422.832C153.301 423.203 153.762 423.429 154.255 423.461C154.749 423.492 155.234 423.326 155.606 422.999C155.977 422.672 156.203 422.21 156.234 421.717C156.265 421.223 156.099 420.736 155.773 420.365L154.428 418.835C154.962 418.279 155.476 417.702 155.956 417.096L157.627 418.229C157.83 418.366 158.059 418.462 158.299 418.511C158.54 418.559 158.788 418.56 159.028 418.513C159.269 418.467 159.499 418.373 159.703 418.237C159.908 418.101 160.083 417.927 160.221 417.723C160.358 417.519 160.453 417.29 160.502 417.05C160.551 416.809 160.552 416.561 160.505 416.32C160.458 416.079 160.364 415.849 160.229 415.645C160.093 415.44 159.919 415.264 159.715 415.127L158.045 413.998C158.407 413.351 158.738 412.685 159.039 412L160.952 412.664C161.418 412.827 161.931 412.798 162.376 412.583C162.821 412.368 163.163 411.984 163.326 411.517C163.489 411.049 163.459 410.536 163.244 410.091C163.029 409.645 162.646 409.303 162.179 409.14L160.258 408.471C160.479 407.626 160.651 406.769 160.776 405.904L162.802 406.034C163.295 406.065 163.781 405.9 164.152 405.573C164.524 405.246 164.75 404.784 164.781 404.29C164.813 403.797 164.647 403.31 164.321 402.939C163.994 402.567 163.533 402.34 163.04 402.309V402.301ZM140.996 382.493C143.837 382.969 146.545 384.045 148.939 385.648C151.334 387.251 153.362 389.344 154.887 391.79L146.793 395.871C145.214 393.708 142.923 392.174 140.323 391.54L140.996 382.493ZM137.279 382.225L136.606 391.268C133.848 391.517 131.277 392.771 129.381 394.792L121.863 389.746C123.726 387.44 126.071 385.569 128.734 384.267C131.396 382.965 134.312 382.262 137.274 382.208L137.279 382.225ZM118.701 410.001C117.838 407.811 117.363 405.486 117.298 403.132L117.532 399.408C117.888 397.101 118.642 394.873 119.758 392.823L127.276 397.873C126.969 398.545 126.73 399.245 126.562 399.964L126.328 403.688C126.403 404.437 126.552 405.177 126.775 405.896L118.701 410.001ZM134.272 422.627C131.428 422.149 128.719 421.071 126.323 419.465C123.928 417.859 121.9 415.762 120.376 413.312L128.474 409.249C130.052 411.413 132.344 412.948 134.944 413.584L134.272 422.627ZM137.575 407.622C136.572 407.612 135.595 407.303 134.767 406.737C133.939 406.17 133.298 405.37 132.924 404.438C132.551 403.507 132.462 402.485 132.668 401.502C132.875 400.52 133.368 399.621 134.085 398.919C134.802 398.217 135.711 397.744 136.696 397.559C137.682 397.374 138.701 397.486 139.623 397.881C140.545 398.275 141.33 398.935 141.877 399.776C142.425 400.617 142.711 401.602 142.7 402.606C142.693 403.273 142.556 403.932 142.294 404.545C142.033 405.159 141.654 405.715 141.178 406.181C140.702 406.648 140.139 407.016 139.521 407.265C138.903 407.514 138.241 407.638 137.575 407.631V407.622ZM137.993 422.894L138.661 413.847C141.419 413.598 143.99 412.344 145.887 410.323L153.404 415.369C151.541 417.676 149.194 419.545 146.531 420.847C143.868 422.148 140.952 422.85 137.989 422.903L137.993 422.894ZM157.727 405.695C157.37 408.001 156.617 410.227 155.501 412.276L147.983 407.225C148.29 406.554 148.529 405.854 148.697 405.135L148.931 401.41C148.857 400.661 148.707 399.922 148.484 399.203L156.558 395.127C157.415 397.313 157.885 399.631 157.949 401.979L157.727 405.695Z" fill="#B8B8E8"/>
        </g>
        <g opacity="0.74">
            <path opacity="0.74" d="M96.6867 475.557C97.06 472.57 94.9432 469.845 91.9585 469.471C88.9739 469.097 86.2517 471.216 85.8784 474.204C85.505 477.191 87.6219 479.916 90.6065 480.29C93.5912 480.664 96.3133 478.545 96.6867 475.557Z" fill="url(#paint0_linear)"/>
            <path opacity="0.6" d="M142.069 477.335L136.393 476.624C136.529 473.31 136.298 469.991 135.704 466.728L141.205 465.223C141.695 465.089 142.155 464.859 142.557 464.547C142.958 464.235 143.295 463.846 143.547 463.404C143.799 462.961 143.961 462.474 144.025 461.969C144.088 461.463 144.052 460.951 143.917 460.46C143.783 459.968 143.553 459.509 143.242 459.106C142.93 458.704 142.542 458.367 142.1 458.115C141.658 457.863 141.171 457.701 140.666 457.637C140.161 457.573 139.649 457.61 139.158 457.744L133.649 459.253C132.491 456.11 130.988 453.106 129.168 450.294L133.683 446.783C134.466 446.143 134.968 445.221 135.082 444.216C135.195 443.21 134.911 442.2 134.29 441.401C133.67 440.602 132.761 440.078 131.76 439.941C130.758 439.804 129.742 440.064 128.93 440.666L124.419 444.178C122.169 441.742 119.658 439.562 116.931 437.677L119.762 432.711C120.193 431.824 120.27 430.807 119.978 429.865C119.686 428.924 119.046 428.129 118.189 427.643C117.332 427.157 116.322 427.017 115.365 427.25C114.408 427.483 113.576 428.072 113.038 428.898L110.198 433.839C107.158 432.439 103.971 431.383 100.696 430.691L101.427 425.01C101.505 424.498 101.48 423.976 101.353 423.474C101.226 422.972 101 422.501 100.688 422.088C100.376 421.675 99.9842 421.329 99.5363 421.07C99.0885 420.811 98.5933 420.644 98.0801 420.58C97.5669 420.516 97.046 420.555 96.5482 420.696C96.0504 420.836 95.5858 421.075 95.1819 421.399C94.7779 421.722 94.4427 422.123 94.1962 422.578C93.9496 423.033 93.7966 423.533 93.7463 424.048L93.0238 429.734C89.7131 429.598 86.3976 429.83 83.1378 430.424L81.6342 424.918C81.5079 424.418 81.2835 423.949 80.9739 423.538C80.6644 423.126 80.2759 422.781 79.8314 422.521C79.3868 422.261 78.895 422.093 78.3847 422.026C77.8744 421.959 77.3559 421.995 76.8595 422.131C76.3631 422.266 75.8987 422.5 75.4935 422.818C75.0884 423.135 74.7505 423.531 74.4998 423.981C74.249 424.43 74.0904 424.926 74.0332 425.438C73.976 425.95 74.0213 426.468 74.1665 426.962L75.6742 432.476C72.5345 433.637 69.5328 435.141 66.7238 436.962L63.2155 432.447C62.9083 432.032 62.5213 431.683 62.0772 431.419C61.6331 431.156 61.1409 430.984 60.6296 430.914C60.1183 430.844 59.5981 430.877 59.0997 431.011C58.6012 431.145 58.1346 431.378 57.7273 431.695C57.3199 432.012 56.98 432.408 56.7275 432.858C56.4751 433.309 56.3152 433.805 56.2572 434.319C56.1992 434.832 56.2444 435.352 56.39 435.847C56.5356 436.343 56.7788 436.805 57.1052 437.205L60.6135 441.724C58.183 443.976 56.0065 446.489 54.1231 449.216L49.1613 446.385C48.7191 446.117 48.2276 445.94 47.7158 445.865C47.2041 445.79 46.6825 445.818 46.1818 445.948C45.6812 446.078 45.2116 446.307 44.8009 446.621C44.3901 446.936 44.0465 447.33 43.7903 447.78C43.5341 448.229 43.3706 448.726 43.3093 449.24C43.248 449.754 43.2902 450.275 43.4335 450.773C43.5767 451.27 43.8181 451.734 44.1434 452.136C44.4686 452.539 44.8712 452.872 45.3272 453.116L50.2806 455.947C48.88 458.985 47.8237 462.171 47.1315 465.445L41.4555 464.734C40.9442 464.656 40.4225 464.681 39.9211 464.809C39.4197 464.936 38.9488 465.162 38.5363 465.474C38.1238 465.787 37.7779 466.178 37.5192 466.627C37.2605 467.075 37.0941 467.571 37.0299 468.084C36.9657 468.598 37.005 469.12 37.1455 469.618C37.2859 470.116 37.5247 470.581 37.8477 470.985C38.1707 471.39 38.5713 471.725 39.026 471.972C39.4807 472.219 39.9801 472.372 40.4949 472.422L46.1709 473.133C46.035 476.447 46.2661 479.766 46.86 483.029L41.3594 484.534C40.868 484.668 40.4079 484.898 40.0052 485.211C39.6026 485.523 39.2655 485.912 39.013 486.355C38.7605 486.798 38.5977 487.286 38.5338 487.792C38.4698 488.298 38.5061 488.812 38.6405 489.304C38.7749 489.796 39.0047 490.256 39.3169 490.659C39.6291 491.062 40.0176 491.4 40.4601 491.653C40.9026 491.905 41.3905 492.068 41.896 492.132C42.4014 492.196 42.9145 492.16 43.406 492.025L48.9191 490.516C50.0765 493.654 51.5782 496.653 53.3963 499.459L48.8815 502.97C48.4667 503.278 48.1176 503.665 47.8547 504.11C47.5917 504.554 47.4201 505.047 47.3501 505.559C47.2801 506.071 47.313 506.591 47.447 507.09C47.5809 507.589 47.8131 508.056 48.13 508.464C48.4469 508.872 48.842 509.212 49.2922 509.465C49.7423 509.717 50.2384 509.877 50.7512 509.935C51.2641 509.993 51.7833 509.948 52.2785 509.802C52.7736 509.657 53.2346 509.413 53.6344 509.087L58.1451 505.575C60.3955 508.015 62.9067 510.201 65.6337 512.092L62.802 517.059C62.3712 517.946 62.2941 518.963 62.5864 519.904C62.8787 520.846 63.5184 521.64 64.3754 522.126C65.2323 522.612 66.242 522.753 67.199 522.52C68.1559 522.287 68.9882 521.697 69.5263 520.872L72.3539 515.914C75.3939 517.315 78.5809 518.373 81.8556 519.066L81.1456 524.747C81.0474 525.752 81.3449 526.756 81.9749 527.544C82.6048 528.333 83.5174 528.845 84.5184 528.97C85.5194 529.095 86.5297 528.824 87.3343 528.215C88.1388 527.606 88.6742 526.707 88.8263 525.709L89.5363 520.027C92.847 520.162 96.1624 519.931 99.4223 519.337L100.926 524.843C101.052 525.343 101.277 525.812 101.586 526.223C101.896 526.635 102.284 526.981 102.729 527.24C103.173 527.5 103.665 527.668 104.175 527.735C104.686 527.802 105.204 527.767 105.701 527.631C106.197 527.495 106.661 527.261 107.067 526.944C107.472 526.626 107.81 526.231 108.06 525.781C108.311 525.331 108.47 524.835 108.527 524.323C108.584 523.811 108.539 523.293 108.394 522.799L106.886 517.285C110.024 516.125 113.025 514.621 115.832 512.799L119.345 517.314C119.652 517.729 120.039 518.079 120.483 518.342C120.927 518.605 121.419 518.777 121.93 518.847C122.442 518.917 122.962 518.884 123.46 518.75C123.959 518.616 124.425 518.383 124.833 518.066C125.24 517.749 125.58 517.354 125.833 516.903C126.085 516.452 126.245 515.956 126.303 515.442C126.361 514.929 126.316 514.409 126.17 513.914C126.024 513.418 125.781 512.957 125.455 512.556L121.947 508.041C124.379 505.79 126.557 503.277 128.441 500.55L133.403 503.384C134.292 503.861 135.333 503.971 136.302 503.691C137.271 503.411 138.093 502.764 138.593 501.887C139.092 501.009 139.23 499.972 138.977 498.994C138.724 498.017 138.1 497.177 137.237 496.653L132.279 493.827C133.681 490.783 134.737 487.592 135.429 484.312L141.105 485.023C142.109 485.121 143.111 484.823 143.899 484.193C144.687 483.562 145.198 482.649 145.323 481.647C145.448 480.645 145.178 479.633 144.569 478.828C143.961 478.023 143.062 477.487 142.065 477.335H142.069ZM62.9649 455.512C63.8777 454.177 65.1653 453.144 66.665 452.542C68.1646 451.94 69.8089 451.796 71.3899 452.13C72.971 452.463 74.4177 453.258 75.5473 454.415C76.6768 455.571 77.4384 457.037 77.7357 458.627C78.033 460.216 77.8527 461.859 77.2175 463.346C76.5824 464.833 75.521 466.098 74.1675 466.981C72.814 467.865 71.2293 468.326 69.6136 468.308C67.998 468.29 66.424 467.793 65.0908 466.879C64.2055 466.272 63.4483 465.497 62.8624 464.597C62.2765 463.698 61.8733 462.692 61.6759 461.636C61.4785 460.581 61.4907 459.496 61.7119 458.446C61.933 457.395 62.3588 456.398 62.9649 455.512ZM71.0758 493.372C69.6122 494.057 67.9784 494.293 66.3811 494.049C64.7837 493.805 63.2945 493.092 62.1018 492.001C60.9091 490.909 60.0666 489.488 59.6807 487.918C59.2948 486.347 59.3828 484.697 59.9338 483.177C60.4847 481.656 61.4738 480.333 62.7759 479.376C64.0779 478.418 65.6345 477.868 67.2488 477.796C68.8631 477.723 70.4625 478.132 71.8447 478.97C73.227 479.807 74.33 481.037 75.0143 482.502C75.9306 484.465 76.031 486.712 75.2933 488.75C74.5556 490.787 73.0402 492.448 71.08 493.367L71.0758 493.372ZM95.5422 440.813C97.1451 441.013 98.6526 441.685 99.874 442.744C101.095 443.802 101.976 445.199 102.405 446.758C102.833 448.317 102.79 449.968 102.281 451.503C101.772 453.037 100.821 454.386 99.5458 455.38C98.271 456.373 96.7307 456.965 95.1196 457.083C93.5085 457.2 91.8988 456.836 90.494 456.038C89.0893 455.239 87.9526 454.042 87.2275 452.597C86.5025 451.152 86.2217 449.524 86.4206 447.92C86.5528 446.853 86.8937 445.823 87.4237 444.889C87.9538 443.955 88.6627 443.134 89.5098 442.474C90.357 441.814 91.3258 441.327 92.3609 441.042C93.3959 440.757 94.477 440.679 95.5422 440.813ZM87.022 508.957C85.4191 508.756 83.9117 508.084 82.6902 507.026C81.4688 505.968 80.5882 504.571 80.1597 503.012C79.7312 501.453 79.7741 499.802 80.2829 498.267C80.7918 496.732 81.7437 495.383 83.0185 494.39C84.2932 493.397 85.8335 492.804 87.4446 492.687C89.0558 492.57 90.6655 492.934 92.0702 493.732C93.4749 494.53 94.6117 495.728 95.3367 497.173C96.0618 498.618 96.3426 500.245 96.1437 501.85C95.8726 504.001 94.7597 505.956 93.0494 507.286C91.3391 508.617 89.1712 509.213 87.022 508.944V508.957ZM90.0166 484.998C88.0197 484.748 86.1416 483.911 84.6197 482.593C83.0979 481.275 82.0005 479.534 81.4664 477.592C80.9323 475.65 80.9854 473.593 81.619 471.681C82.2525 469.769 83.4381 468.088 85.026 466.85C86.6138 465.612 88.5325 464.874 90.5397 464.727C92.5469 464.581 94.5524 465.033 96.3027 466.027C98.0531 467.021 99.4697 468.512 100.374 470.312C101.278 472.112 101.628 474.14 101.381 476.139C101.216 477.467 100.791 478.749 100.131 479.912C99.4702 481.076 98.5873 482.098 97.5324 482.92C96.4775 483.741 95.2711 484.347 93.9823 484.702C92.6934 485.058 91.3473 485.155 90.0208 484.989L90.0166 484.998ZM111.48 456.398C112.944 455.713 114.577 455.477 116.175 455.721C117.772 455.965 119.261 456.678 120.454 457.769C121.647 458.86 122.489 460.281 122.875 461.852C123.261 463.422 123.173 465.072 122.622 466.593C122.071 468.113 121.082 469.436 119.78 470.394C118.478 471.352 116.921 471.902 115.307 471.974C113.693 472.046 112.093 471.638 110.711 470.8C109.329 469.962 108.226 468.733 107.542 467.268C107.087 466.294 106.828 465.241 106.78 464.167C106.732 463.094 106.896 462.021 107.262 461.011C107.628 460.001 108.189 459.073 108.914 458.28C109.638 457.487 110.512 456.845 111.484 456.39L111.48 456.398ZM119.595 494.258C118.683 495.593 117.396 496.627 115.897 497.23C114.398 497.833 112.754 497.977 111.173 497.645C109.591 497.312 108.144 496.518 107.014 495.363C105.884 494.207 105.121 492.742 104.823 491.152C104.524 489.563 104.703 487.921 105.337 486.433C105.971 484.946 107.032 483.68 108.385 482.796C109.737 481.911 111.322 481.448 112.937 481.465C114.553 481.482 116.127 481.978 117.461 482.891C119.247 484.114 120.476 485.996 120.877 488.125C121.278 490.254 120.818 492.455 119.599 494.245L119.595 494.258Z" fill="#B8B8E8"/>
        </g>
    </g>
    <path d="M133.248 491.398L116.095 490.721L126.678 453.973L142.482 457.092L133.248 491.398Z" fill="url(#paint1_linear)"/>
    <path d="M211.158 448.346C211.158 440.917 208.21 433.793 202.962 428.54C197.714 423.287 190.596 420.336 183.175 420.336H151.379C143.957 420.336 136.839 423.287 131.592 428.54C126.344 433.793 123.396 440.917 123.396 448.346V460.386L141.037 463.062V513.037L204.104 508.856V459.416L211.158 460.963V448.346Z" fill="#E8443C"/>
    <path d="M166.022 431.134C167.064 431.134 168.094 430.923 169.052 430.513C170.01 430.103 170.874 429.502 171.593 428.748C172.312 427.994 172.871 427.101 173.236 426.125C173.601 425.148 173.764 424.107 173.715 423.066L172.947 406.573L158.746 407.957L158.329 423.208C158.3 424.238 158.477 425.263 158.851 426.223C159.224 427.183 159.786 428.058 160.503 428.797C161.22 429.536 162.078 430.124 163.026 430.525C163.974 430.927 164.993 431.134 166.022 431.134Z" fill="#E7A585"/>
    <path d="M180.143 401.005C180.143 401.52 180.028 402.03 179.806 402.495C179.584 402.96 179.262 403.37 178.861 403.695C178.461 404.019 177.993 404.25 177.493 404.371C176.992 404.491 176.47 404.498 175.966 404.391L175.849 404.362L175.682 404.316L175.494 404.253C175.371 404.207 175.249 404.154 175.131 404.094C174.469 403.76 173.932 403.223 173.598 402.56C173.473 402.66 173.356 402.769 173.247 402.886C172.714 403.466 172.128 403.995 171.497 404.466C169.259 406.139 164.781 405.921 163.144 403.797C162.705 403.201 162.058 402.792 161.332 402.652C160.551 402.523 159.751 402.671 159.068 403.07C157.815 403.768 157.067 403.488 156.587 402.769C156.47 402.564 156.357 402.351 156.249 402.142C155.472 400.584 155.069 398.866 155.071 397.125C155.128 394.18 156.336 391.374 158.438 389.311C160.539 387.248 163.365 386.092 166.308 386.092C169.251 386.092 172.077 387.248 174.178 389.311C176.28 391.374 177.488 394.18 177.545 397.125C177.545 397.309 177.545 397.489 177.545 397.669C178.286 397.859 178.942 398.29 179.412 398.893C179.882 399.497 180.139 400.239 180.143 401.005Z" fill="#E7A585"/>
    <path d="M175.123 404.09C173.987 405.527 172.518 406.664 170.842 407.403C169.167 408.142 167.337 408.46 165.511 408.329C163.685 408.199 161.919 407.623 160.366 406.654C158.813 405.684 157.52 404.349 156.6 402.765C157.084 403.463 157.811 403.764 159.081 403.066C159.764 402.667 160.564 402.519 161.344 402.648C162.071 402.788 162.718 403.197 163.157 403.793C164.782 405.921 169.259 406.138 171.51 404.462C172.141 403.991 172.727 403.462 173.26 402.882C173.369 402.765 173.486 402.656 173.611 402.556C173.939 403.215 174.469 403.753 175.123 404.09Z" fill="url(#paint2_linear)"/>
    <path d="M175.979 404.391L174.726 409.562C173.088 415.796 166.176 419.796 159.272 418.496C155.756 417.832 153.717 414.876 153.843 409.683C153.968 404.491 154.983 402.33 155.58 400.486C155.757 401.052 155.979 401.603 156.244 402.133C156.338 402.352 156.451 402.562 156.583 402.76C157.067 403.459 157.794 403.76 159.063 403.061C159.746 402.662 160.547 402.515 161.327 402.643C162.054 402.784 162.701 403.193 163.14 403.789C164.764 405.917 169.242 406.134 171.493 404.458C172.124 403.986 172.71 403.457 173.243 402.877C173.352 402.76 173.469 402.651 173.594 402.551C173.925 403.213 174.459 403.75 175.118 404.086C175.235 404.148 175.357 404.201 175.482 404.244C175.543 404.269 175.606 404.29 175.67 404.307C175.724 404.326 175.78 404.342 175.837 404.353L175.954 404.382L175.979 404.391Z" fill="#020203"/>
    <path d="M159.03 382.911C162.852 382.413 169.054 383.96 173.41 384.512C175.636 384.796 177.524 385.9 178.005 387.539C178.456 389.098 178.698 394.792 177.474 397.643C176.934 397.515 176.371 397.521 175.833 397.659C175.295 397.798 174.799 398.065 174.388 398.438C173.832 396.903 174.3 393.76 167.78 392.656C165.8 393.279 163.756 393.68 161.687 393.852C158.4 394.27 154.566 392.572 154.194 389.55C153.822 386.527 155.743 383.329 159.03 382.911Z" fill="#020203"/>
    <path d="M187.226 461.327H141.071V462.849H187.226V461.327Z" fill="url(#paint3_linear)"/>
    <path d="M187.226 466.632H141.071V468.154H187.226V466.632Z" fill="url(#paint4_linear)"/>
    <path d="M187.226 471.933H141.071V473.455H187.226V471.933Z" fill="url(#paint5_linear)"/>
    <path d="M187.226 477.238H141.071V478.76H187.226V477.238Z" fill="url(#paint6_linear)"/>
    <path d="M246.501 523.719H180.005V483.396C180.005 471.737 180.736 462.284 192.385 462.284H230.341C234.628 462.284 238.739 463.989 241.771 467.023C244.802 470.057 246.505 474.172 246.505 478.463L246.501 523.719Z" fill="#9595CB"/>
    <path d="M190.004 428.597C190.004 428.597 186.346 429.596 186.663 434.257C186.943 438.196 186.751 459.262 186.663 465.683C186.663 467.485 187.035 469.416 188.359 470.641C189.461 471.661 189.633 472.41 196.637 472.761C207.496 473.304 202.939 449.274 202.939 449.274L190.004 428.597Z" fill="#020202"/>
    <path d="M202.567 462.288H206.259C214.313 462.288 222.037 465.491 227.732 471.192C233.427 476.892 236.627 484.624 236.627 492.686V523.342H172.199V492.686C172.199 488.694 172.984 484.741 174.51 481.053C176.037 477.365 178.273 474.014 181.093 471.192C183.913 468.369 187.261 466.13 190.945 464.602C194.63 463.075 198.579 462.288 202.567 462.288Z" fill="#FF8888"/>
    <path d="M224.958 489.283H236.101C236.242 489.283 236.377 489.339 236.476 489.438C236.576 489.538 236.632 489.673 236.632 489.814V523.581H224.958V489.3V489.283Z" fill="#FF8888"/>
    <path d="M191.762 453.463C190.676 453.473 189.628 453.065 188.835 452.323C188.041 451.581 187.563 450.562 187.5 449.477C187.436 448.392 187.791 447.324 188.492 446.494C189.193 445.664 190.186 445.136 191.265 445.018C191.265 445.018 191.265 445.018 191.29 445.018C191.315 445.018 191.373 445.098 191.407 445.127L191.49 445.198L191.273 445.227C190.276 445.351 189.362 445.843 188.709 446.608C188.057 447.373 187.714 448.354 187.748 449.359C187.782 450.364 188.191 451.32 188.893 452.038C189.596 452.757 190.542 453.187 191.545 453.242C192.548 453.298 193.535 452.976 194.313 452.34C195.091 451.704 195.603 450.799 195.748 449.804C195.893 448.809 195.661 447.796 195.097 446.963C194.533 446.131 193.679 445.54 192.702 445.307C192.675 445.3 192.651 445.283 192.637 445.259C192.622 445.235 192.618 445.206 192.624 445.179C192.631 445.152 192.648 445.129 192.672 445.114C192.696 445.1 192.725 445.095 192.752 445.102C193.76 445.344 194.644 445.948 195.237 446.799C195.83 447.651 196.091 448.69 195.969 449.721C195.848 450.751 195.353 451.702 194.578 452.391C193.803 453.081 192.803 453.462 191.766 453.463H191.762Z" fill="url(#paint7_linear)"/>
    <path d="M182.202 488.447H170.441V514.605H182.202V488.447Z" fill="url(#paint8_linear)"/>
    <path d="M197.242 466.837C197.242 467.655 197.403 468.466 197.716 469.222C198.029 469.979 198.488 470.666 199.066 471.245C199.644 471.823 200.331 472.282 201.086 472.596C201.842 472.909 202.652 473.07 203.469 473.07H204.371C205.189 473.07 205.999 472.909 206.755 472.596C207.51 472.282 208.197 471.823 208.775 471.245C209.353 470.666 209.812 469.979 210.125 469.222C210.438 468.466 210.599 467.655 210.599 466.837V448.246H197.234V466.837H197.242Z" fill="url(#paint9_linear)"/>
    <path d="M200.521 452.338C207.819 452.338 213.735 446.416 213.735 439.111C213.735 431.806 207.819 425.883 200.521 425.883C193.222 425.883 187.306 431.806 187.306 439.111C187.306 446.416 193.222 452.338 200.521 452.338Z" fill="url(#paint10_linear)"/>
    <path d="M211.004 427.238C213.512 427.238 215.544 425.203 215.544 422.694C215.544 420.184 213.512 418.149 211.004 418.149C208.497 418.149 206.464 420.184 206.464 422.694C206.464 425.203 208.497 427.238 211.004 427.238Z" fill="#523042"/>
    <path d="M188.671 428.927C188.671 428.927 193.328 437.581 202.304 438.58C211.279 439.579 202.767 447.522 202.968 452.226C203.323 460.587 206.627 474.136 220.259 473.472C225.655 473.208 228.758 470.804 230.542 467.999C231.803 465.958 232.442 463.593 232.381 461.194C232.319 458.794 231.56 456.465 230.195 454.492C225.003 446.845 211.973 427.861 209.955 426.598C207.295 424.934 189.006 424.6 188.671 428.927Z" fill="#523042"/>
    <path d="M204.447 453.463C203.361 453.473 202.313 453.065 201.52 452.323C200.726 451.581 200.248 450.562 200.184 449.477C200.12 448.392 200.476 447.324 201.177 446.494C201.877 445.664 202.87 445.136 203.95 445.018C203.95 445.018 203.95 445.018 203.975 445.018C204 445.018 204.058 445.098 204.092 445.127L204.175 445.198L203.958 445.227C202.961 445.351 202.046 445.843 201.394 446.608C200.742 447.373 200.399 448.354 200.433 449.359C200.467 450.364 200.875 451.32 201.578 452.038C202.281 452.757 203.226 453.187 204.229 453.242C205.232 453.298 206.22 452.976 206.998 452.34C207.776 451.704 208.287 450.799 208.432 449.804C208.578 448.809 208.345 447.796 207.782 446.963C207.218 446.131 206.363 445.54 205.386 445.307C205.359 445.3 205.336 445.283 205.321 445.259C205.307 445.235 205.302 445.206 205.309 445.179C205.316 445.152 205.333 445.129 205.357 445.114C205.381 445.1 205.409 445.095 205.436 445.102C206.445 445.344 207.329 445.948 207.922 446.799C208.515 447.651 208.775 448.69 208.654 449.721C208.532 450.751 208.037 451.702 207.263 452.391C206.488 453.081 205.488 453.462 204.451 453.463H204.447Z" fill="url(#paint11_linear)"/>
    <path d="M204.313 477.949C204.593 477.949 204.819 477.723 204.819 477.443C204.819 477.164 204.593 476.938 204.313 476.938C204.034 476.938 203.808 477.164 203.808 477.443C203.808 477.723 204.034 477.949 204.313 477.949Z" fill="white"/>
    <path d="M204.313 482.31C204.593 482.31 204.819 482.083 204.819 481.804C204.819 481.524 204.593 481.298 204.313 481.298C204.034 481.298 203.808 481.524 203.808 481.804C203.808 482.083 204.034 482.31 204.313 482.31Z" fill="white"/>
    <path d="M204.313 486.67C204.593 486.67 204.819 486.443 204.819 486.164C204.819 485.884 204.593 485.658 204.313 485.658C204.034 485.658 203.808 485.884 203.808 486.164C203.808 486.443 204.034 486.67 204.313 486.67Z" fill="white"/>
    <g opacity="0.44">
        <path opacity="0.44" d="M224.958 503.965H182.566V504.726H224.958V503.965Z" fill="url(#paint12_linear)"/>
    </g>
    <g opacity="0.44">
        <path opacity="0.44" d="M224.958 508.836H182.566V509.597H224.958V508.836Z" fill="url(#paint13_linear)"/>
    </g>
    <g opacity="0.44">
        <path opacity="0.44" d="M224.958 513.706H182.566V514.467H224.958V513.706Z" fill="url(#paint14_linear)"/>
    </g>
    <g opacity="0.44">
        <path opacity="0.44" d="M224.958 518.577H182.566V519.338H224.958V518.577Z" fill="url(#paint15_linear)"/>
    </g>
    <path d="M147.607 510.813C148.982 510.811 150.331 510.442 151.516 509.746C152.701 509.05 153.68 508.05 154.352 506.85C155.024 505.65 155.365 504.293 155.34 502.918C155.315 501.542 154.925 500.198 154.211 499.024L131.047 461.055C130.517 460.186 129.822 459.43 129 458.831C128.178 458.231 127.247 457.799 126.258 457.56C125.27 457.321 124.244 457.278 123.24 457.436C122.235 457.593 121.271 457.947 120.403 458.478C119.535 459.008 118.78 459.704 118.181 460.527C117.582 461.349 117.15 462.282 116.911 463.271C116.672 464.26 116.63 465.287 116.787 466.293C116.945 467.299 117.298 468.263 117.828 469.132L140.992 507.101C141.683 508.236 142.655 509.173 143.814 509.824C144.973 510.474 146.279 510.814 147.607 510.813Z" fill="#273271"/>
    <path d="M121.558 456.686H94.5398C86.3663 456.686 82.6951 464.588 82.9707 469.592L89.1771 520.596C89.3042 521.75 89.8545 522.817 90.7216 523.589C91.5887 524.361 92.711 524.784 93.8716 524.776L125.877 524.538C127.058 524.529 128.193 524.075 129.054 523.265C129.915 522.455 130.439 521.349 130.521 520.169L132.589 470.704C133.127 462.941 130.509 456.686 121.558 456.686Z" fill="#273271"/>
    <path d="M119.036 513.953C117.04 513.405 115.114 512.79 113.089 513.367C112.526 513.498 111.955 513.595 111.38 513.656L101.649 511.766L101.983 519.342L111.051 519.254L113.728 519.275H128.283C128.279 517.694 123.923 515.299 119.036 513.953Z" fill="#F2B3A5"/>
    <path d="M102.58 523.342L70.2613 523.179C68.3268 523.195 66.4525 522.507 64.9862 521.244C63.7926 520.178 62.9622 518.766 62.6116 517.204C62.2611 515.642 62.4079 514.009 63.0316 512.535L84.0523 463.844C84.8202 462.074 86.2443 460.672 88.0245 459.933C89.8047 459.193 91.8021 459.175 93.5958 459.88C94.5208 460.244 95.3637 460.789 96.0747 461.484C96.7856 462.179 97.3503 463.009 97.7354 463.926C98.1204 464.843 98.318 465.828 98.3165 466.823C98.3149 467.817 98.1143 468.802 97.7265 469.717L81.5673 507.995L102.747 511.712L102.58 523.342Z" fill="#273271"/>
    <path d="M137.175 523.338H105.57V523.104C105.57 522.089 105.973 521.117 106.69 520.399C107.406 519.682 108.378 519.279 109.392 519.279H137.175V523.338Z" fill="#7F8080"/>
    <path d="M134.635 523.338H182.273C183.609 523.339 184.907 522.901 185.971 522.092C187.035 521.284 187.804 520.149 188.162 518.861L197.451 485.453C197.642 484.765 197.671 484.041 197.537 483.339C197.403 482.638 197.108 481.976 196.676 481.407C196.245 480.838 195.687 480.377 195.048 480.059C194.408 479.741 193.704 479.576 192.99 479.575H149.846C148.956 479.576 148.09 479.871 147.385 480.416C146.68 480.96 146.175 481.723 145.949 482.585L134.635 523.338Z" fill="#CCC9C5"/>
    <path d="M167.989 507.548C170.478 507.548 172.496 505.528 172.496 503.037C172.496 500.545 170.478 498.526 167.989 498.526C165.5 498.526 163.483 500.545 163.483 503.037C163.483 505.528 165.5 507.548 167.989 507.548Z" fill="white"/>
    <path d="M124.708 452.807L93.0743 453.413L94.4777 437.05C94.6072 434.949 94.99 432.872 95.6179 430.863C97.9275 424.458 103.098 419.742 109.451 419.75C117.048 419.817 122.778 425.733 123.651 434.579C124.161 439.583 124.708 452.807 124.708 452.807Z" fill="#1A1D23"/>
    <path d="M103.369 441.44H116.095V459.091C116.095 460.683 115.464 462.21 114.339 463.336C113.214 464.461 111.689 465.094 110.098 465.094H109.363C107.772 465.094 106.247 464.461 105.122 463.336C103.997 462.21 103.365 460.683 103.365 459.091V441.44H103.369Z" fill="#F2B3A5"/>
    <path d="M119.641 441.799L116.584 446.916H122.323L119.641 441.799Z" fill="#FF8888"/>
    <path d="M110.223 448.584C116.748 448.584 122.038 443.289 122.038 436.757C122.038 430.226 116.748 424.93 110.223 424.93C103.697 424.93 98.4072 430.226 98.4072 436.757C98.4072 443.289 103.697 448.584 110.223 448.584Z" fill="url(#paint16_linear)"/>
    <path d="M122.31 434.119C117.908 433.367 115.974 432.84 110.837 432.84L110.949 424.261L120.526 425.553L122.31 434.119Z" fill="#1A1D23"/>
    <path d="M103.515 425.298C102.037 425.984 99.8148 428.258 99.0505 429.608C98.2862 430.959 97.5428 433.868 97.2588 435.344C96.6281 438.618 96.2313 448.643 96.2313 448.643L102.337 448.977C102.337 448.977 101.799 444.408 101.861 442.886C101.861 442.69 101.886 442.468 101.903 442.209C100.925 441.908 100.099 441.241 99.5992 440.347C99.099 439.453 98.9621 438.401 99.2169 437.408C99.4718 436.416 100.099 435.56 100.968 435.018C101.837 434.477 102.881 434.291 103.883 434.5C105.833 433.948 108.477 431.72 109.312 430.215C110.035 428.927 111.877 424.893 111.877 424.893C111.877 424.893 105.537 424.366 103.515 425.298Z" fill="#1A1D23"/>
    <path d="M100.93 442.272C101.571 442.272 102.091 441.751 102.091 441.109C102.091 440.468 101.571 439.947 100.93 439.947C100.289 439.947 99.7688 440.468 99.7688 441.109C99.7688 441.751 100.289 442.272 100.93 442.272Z" fill="#FF8888"/>
    <path d="M100.929 441.444L97.8679 446.561H103.611L100.929 441.444Z" fill="#FF8888"/>
    <g opacity="0.72">
        <path opacity="0.72" d="M104.175 479.58C104.62 479.58 104.981 479.219 104.981 478.773C104.981 478.328 104.62 477.966 104.175 477.966C103.73 477.966 103.369 478.328 103.369 478.773C103.369 479.219 103.73 479.58 104.175 479.58Z" fill="white"/>
        <path opacity="0.72" d="M93.8881 498.56C94.3333 498.56 94.6942 498.199 94.6942 497.753C94.6942 497.308 94.3333 496.946 93.8881 496.946C93.4429 496.946 93.082 497.308 93.082 497.753C93.082 498.199 93.4429 498.56 93.8881 498.56Z" fill="white"/>
        <path opacity="0.72" d="M123.011 489.241C123.456 489.241 123.817 488.88 123.817 488.434C123.817 487.989 123.456 487.628 123.011 487.628C122.566 487.628 122.205 487.989 122.205 488.434C122.205 488.88 122.566 489.241 123.011 489.241Z" fill="white"/>
        <path opacity="0.72" d="M109.408 495.834C109.853 495.834 110.214 495.473 110.214 495.027C110.214 494.582 109.853 494.22 109.408 494.22C108.963 494.22 108.602 494.582 108.602 495.027C108.602 495.473 108.963 495.834 109.408 495.834Z" fill="white"/>
        <path opacity="0.72" d="M123.818 510.203C124.263 510.203 124.624 509.842 124.624 509.396C124.624 508.951 124.263 508.589 123.818 508.589C123.372 508.589 123.011 508.951 123.011 509.396C123.011 509.842 123.372 510.203 123.818 510.203Z" fill="white"/>
        <path opacity="0.72" d="M82.2065 488.815C82.6517 488.815 83.0126 488.454 83.0126 488.008C83.0126 487.562 82.6517 487.201 82.2065 487.201C81.7613 487.201 81.4004 487.562 81.4004 488.008C81.4004 488.454 81.7613 488.815 82.2065 488.815Z" fill="white"/>
        <path opacity="0.72" d="M88.9223 470.044C89.3675 470.044 89.7284 469.683 89.7284 469.237C89.7284 468.792 89.3675 468.43 88.9223 468.43C88.4771 468.43 88.1162 468.792 88.1162 469.237C88.1162 469.683 88.4771 470.044 88.9223 470.044Z" fill="white"/>
        <path opacity="0.72" d="M123.818 467.301C124.263 467.301 124.624 466.94 124.624 466.495C124.624 466.049 124.263 465.688 123.818 465.688C123.372 465.688 123.011 466.049 123.011 466.495C123.011 466.94 123.372 467.301 123.818 467.301Z" fill="white"/>
        <path opacity="0.72" d="M136.828 480.387C137.273 480.387 137.634 480.025 137.634 479.58C137.634 479.134 137.273 478.773 136.828 478.773C136.382 478.773 136.022 479.134 136.022 479.58C136.022 480.025 136.382 480.387 136.828 480.387Z" fill="white"/>
        <path opacity="0.72" d="M70.2946 502.264C70.7398 502.264 71.1007 501.903 71.1007 501.457C71.1007 501.012 70.7398 500.65 70.2946 500.65C69.8494 500.65 69.4885 501.012 69.4885 501.457C69.4885 501.903 69.8494 502.264 70.2946 502.264Z" fill="white"/>
        <path opacity="0.72" d="M79.7128 517.695C80.158 517.695 80.5189 517.333 80.5189 516.888C80.5189 516.442 80.158 516.081 79.7128 516.081C79.2676 516.081 78.9067 516.442 78.9067 516.888C78.9067 517.333 79.2676 517.695 79.7128 517.695Z" fill="white"/>
        <path opacity="0.72" d="M92.2763 513.276C92.7215 513.276 93.0824 512.915 93.0824 512.469C93.0824 512.023 92.7215 511.662 92.2763 511.662C91.8311 511.662 91.4702 512.023 91.4702 512.469C91.4702 512.915 91.8311 513.276 92.2763 513.276Z" fill="white"/>
    </g>
    <path d="M42.4537 528.886H269.66C270.988 528.886 272.065 527.632 272.065 526.11C272.065 524.576 270.988 523.334 269.66 523.334H42.4537C41.1255 523.334 40.048 524.588 40.048 526.11H40.0312C40.0312 527.644 41.1255 528.886 42.4537 528.886Z" fill="#9595CB"/>
    <path d="M248.744 384.123H217.587C213.861 384.123 210.837 387.56 210.837 391.799V402.631C210.837 406.87 213.857 410.306 217.587 410.306H225.025L225.063 416.887L232.05 410.231C232.56 410.156 250.64 410.014 251.108 409.813C253.668 408.726 255.493 405.921 255.493 402.631V391.795C255.493 387.555 252.469 384.123 248.744 384.123Z" fill="#F6BC73"/>
    <path d="M43.5934 413.12H78.4971C80.4016 413.12 81.947 415.081 81.947 417.502V434.571C81.947 436.992 80.4016 438.952 78.4971 438.952H73.7776L74.237 446.331L64.1589 438.952H43.5934C41.6889 438.952 40.1436 436.992 40.1436 434.571V417.502C40.1436 415.102 41.7014 413.12 43.5934 413.12Z" fill="#F6BC73"/>
    <path opacity="0.47" d="M77.6458 429.943H44.5297V431.423H77.6458V429.943Z" fill="url(#paint17_linear)"/>
    <path opacity="0.47" d="M77.6458 425.118H44.5297V426.598H77.6458V425.118Z" fill="url(#paint18_linear)"/>
    <path opacity="0.47" d="M77.6458 420.294H44.5297V421.774H77.6458V420.294Z" fill="url(#paint19_linear)"/>
    <path opacity="0.39" d="M209.229 353.136C209.227 350.372 208.518 347.655 207.169 345.244C205.82 342.832 203.877 340.807 201.523 339.361C199.17 337.916 196.486 337.098 193.727 336.986C190.968 336.874 188.227 337.472 185.765 338.723C183.302 339.973 181.201 341.834 179.662 344.129C178.123 346.423 177.197 349.074 176.972 351.829C176.747 354.583 177.232 357.35 178.379 359.863C179.527 362.377 181.299 364.555 183.526 366.188C184.497 366.885 185.289 367.801 185.839 368.863C186.389 369.924 186.681 371.1 186.692 372.296V375.503H199.059V372.626C199.049 371.418 199.333 370.226 199.885 369.152C200.437 368.078 201.241 367.154 202.229 366.46C204.389 364.975 206.155 362.986 207.375 360.665C208.594 358.343 209.231 355.759 209.229 353.136Z" fill="#E1E1F5"/>
    <path d="M199.101 375.498H186.245C185.83 375.498 185.494 375.835 185.494 376.251V376.343C185.494 376.759 185.83 377.095 186.245 377.095H199.101C199.516 377.095 199.853 376.759 199.853 376.343V376.251C199.853 375.835 199.516 375.498 199.101 375.498Z" fill="url(#paint20_linear)"/>
    <path d="M199.101 377.096H186.245C185.83 377.096 185.494 377.433 185.494 377.848V377.94C185.494 378.356 185.83 378.693 186.245 378.693H199.101C199.516 378.693 199.853 378.356 199.853 377.94V377.848C199.853 377.433 199.516 377.096 199.101 377.096Z" fill="url(#paint21_linear)"/>
    <path d="M199.101 378.693H186.245C185.83 378.693 185.494 379.03 185.494 379.445V379.537C185.494 379.953 185.83 380.29 186.245 380.29H199.101C199.516 380.29 199.853 379.953 199.853 379.537V379.445C199.853 379.03 199.516 378.693 199.101 378.693Z" fill="url(#paint22_linear)"/>
    <path d="M199.101 380.289H186.245C185.83 380.289 185.494 380.626 185.494 381.042V381.134C185.494 381.55 185.83 381.886 186.245 381.886H199.101C199.516 381.886 199.853 381.55 199.853 381.134V381.042C199.853 380.626 199.516 380.289 199.101 380.289Z" fill="url(#paint23_linear)"/>
    <path d="M186.333 382.008H199.013C199.129 382.008 199.241 382.054 199.323 382.137C199.406 382.219 199.452 382.331 199.452 382.447V382.698C199.452 383.679 199.062 384.62 198.369 385.314C197.676 386.008 196.736 386.398 195.755 386.398H189.587C188.606 386.398 187.666 386.008 186.973 385.314C186.28 384.62 185.89 383.679 185.89 382.698V382.447C185.89 382.389 185.902 382.331 185.924 382.278C185.946 382.224 185.979 382.176 186.02 382.135C186.061 382.094 186.11 382.062 186.164 382.04C186.218 382.018 186.275 382.007 186.333 382.008Z" fill="url(#paint24_linear)"/>
    <g opacity="0.56">
        <path opacity="0.55" d="M178.431 339.143C178.387 339.143 178.344 339.134 178.304 339.117C178.264 339.1 178.227 339.075 178.197 339.043L175.202 335.962C175.172 335.931 175.149 335.895 175.133 335.855C175.117 335.815 175.109 335.773 175.11 335.73C175.111 335.643 175.147 335.56 175.209 335.5C175.271 335.44 175.354 335.406 175.441 335.408C175.527 335.409 175.61 335.444 175.67 335.506L178.665 338.596C178.71 338.642 178.741 338.7 178.754 338.763C178.766 338.827 178.759 338.893 178.734 338.952C178.709 339.012 178.667 339.063 178.613 339.098C178.559 339.134 178.495 339.152 178.431 339.152V339.143Z" fill="url(#paint25_linear)"/>
        <path opacity="0.55" d="M209.212 371.849C209.167 371.849 209.122 371.84 209.08 371.822C209.038 371.804 209.001 371.778 208.97 371.744L206.084 368.592C206.025 368.528 205.994 368.443 205.998 368.356C206.002 368.269 206.04 368.187 206.105 368.128C206.169 368.069 206.254 368.038 206.341 368.042C206.428 368.046 206.509 368.085 206.568 368.149L209.454 371.301C209.497 371.348 209.526 371.406 209.537 371.469C209.547 371.532 209.539 371.596 209.513 371.655C209.487 371.713 209.445 371.762 209.392 371.797C209.338 371.831 209.276 371.849 209.212 371.849Z" fill="url(#paint26_linear)"/>
        <path opacity="0.55" d="M172.993 348.383C172.964 348.387 172.934 348.387 172.905 348.383L168.795 347.208C168.754 347.196 168.715 347.176 168.681 347.15C168.648 347.123 168.62 347.09 168.599 347.052C168.578 347.014 168.564 346.973 168.559 346.93C168.554 346.887 168.558 346.844 168.57 346.803C168.582 346.761 168.601 346.722 168.628 346.689C168.655 346.655 168.688 346.627 168.726 346.606C168.763 346.585 168.805 346.571 168.847 346.567C168.89 346.562 168.934 346.565 168.975 346.577L173.085 347.739C173.164 347.757 173.234 347.804 173.281 347.871C173.327 347.938 173.347 348.02 173.336 348.101C173.325 348.182 173.284 348.256 173.221 348.308C173.158 348.36 173.078 348.387 172.997 348.383H172.993Z" fill="url(#paint27_linear)"/>
        <path opacity="0.55" d="M215.99 361.305C215.957 361.31 215.923 361.31 215.89 361.305L211.818 360.022C211.777 360.009 211.739 359.988 211.705 359.96C211.672 359.933 211.645 359.899 211.625 359.86C211.605 359.822 211.593 359.78 211.589 359.737C211.585 359.694 211.59 359.651 211.603 359.61C211.616 359.569 211.637 359.53 211.664 359.497C211.692 359.464 211.726 359.437 211.764 359.417C211.802 359.397 211.844 359.385 211.887 359.381C211.93 359.377 211.973 359.382 212.014 359.395L216.086 360.678C216.163 360.7 216.229 360.749 216.272 360.816C216.315 360.883 216.332 360.964 216.319 361.042C216.307 361.121 216.266 361.193 216.205 361.243C216.144 361.294 216.066 361.32 215.986 361.318L215.99 361.305Z" fill="url(#paint28_linear)"/>
        <path opacity="0.55" d="M168.858 360.101C168.777 360.103 168.699 360.074 168.638 360.021C168.577 359.969 168.538 359.895 168.528 359.815C168.518 359.735 168.539 359.654 168.585 359.588C168.631 359.522 168.7 359.475 168.779 359.457L172.918 358.408C173.002 358.387 173.091 358.4 173.165 358.445C173.24 358.49 173.293 358.562 173.314 358.646C173.335 358.731 173.322 358.82 173.278 358.894C173.233 358.969 173.161 359.022 173.076 359.043L168.937 360.093L168.858 360.101Z" fill="url(#paint29_linear)"/>
        <path opacity="0.55" d="M212.524 349.658C212.44 349.665 212.356 349.638 212.291 349.584C212.225 349.53 212.184 349.453 212.175 349.369C212.165 349.284 212.189 349.2 212.241 349.133C212.293 349.066 212.369 349.022 212.453 349.01L216.63 348.086C216.672 348.077 216.715 348.076 216.757 348.083C216.8 348.091 216.84 348.106 216.876 348.13C216.913 348.153 216.944 348.183 216.969 348.218C216.993 348.253 217.011 348.293 217.02 348.335C217.03 348.377 217.031 348.42 217.023 348.463C217.016 348.505 217 348.546 216.977 348.582C216.954 348.618 216.924 348.65 216.889 348.674C216.853 348.699 216.814 348.716 216.772 348.726L212.595 349.65L212.524 349.658Z" fill="url(#paint30_linear)"/>
        <path opacity="0.55" d="M175.274 371.159C175.208 371.16 175.143 371.142 175.087 371.106C175.032 371.069 174.989 371.017 174.964 370.956C174.939 370.895 174.934 370.827 174.948 370.763C174.962 370.698 174.996 370.64 175.044 370.595L178.105 367.614C178.136 367.584 178.172 367.56 178.212 367.544C178.252 367.529 178.294 367.521 178.337 367.521C178.38 367.522 178.422 367.531 178.462 367.548C178.501 367.565 178.537 367.589 178.567 367.62C178.597 367.651 178.62 367.687 178.636 367.727C178.652 367.767 178.66 367.809 178.659 367.852C178.659 367.895 178.65 367.938 178.633 367.977C178.616 368.016 178.591 368.052 178.56 368.082L175.499 371.063C175.439 371.123 175.358 371.158 175.274 371.159Z" fill="url(#paint31_linear)"/>
        <path opacity="0.55" d="M207.855 340.268C207.789 340.269 207.724 340.25 207.669 340.212C207.614 340.175 207.572 340.122 207.548 340.061C207.524 339.999 207.519 339.931 207.534 339.867C207.55 339.802 207.584 339.744 207.633 339.7L210.783 336.811C210.847 336.752 210.932 336.721 211.019 336.725C211.106 336.729 211.188 336.768 211.246 336.832C211.305 336.896 211.336 336.981 211.332 337.068C211.328 337.155 211.29 337.237 211.225 337.296L208.076 340.185C208.015 340.239 207.936 340.269 207.855 340.268Z" fill="url(#paint32_linear)"/>
        <path opacity="0.55" d="M199.054 334.415C199.004 334.416 198.954 334.404 198.908 334.381C198.863 334.359 198.824 334.326 198.793 334.285C198.763 334.244 198.742 334.197 198.733 334.147C198.724 334.097 198.727 334.046 198.741 333.997L200.023 329.921C200.036 329.88 200.057 329.842 200.085 329.809C200.112 329.776 200.146 329.748 200.185 329.728C200.223 329.708 200.265 329.696 200.307 329.692C200.35 329.688 200.394 329.693 200.435 329.706C200.476 329.719 200.514 329.74 200.547 329.767C200.58 329.795 200.608 329.829 200.628 329.867C200.648 329.905 200.66 329.947 200.664 329.99C200.667 330.033 200.663 330.077 200.65 330.118L199.368 334.194C199.346 334.259 199.303 334.316 199.247 334.356C199.191 334.395 199.123 334.416 199.054 334.415Z" fill="url(#paint33_linear)"/>
        <path opacity="0.55" d="M188.404 333.809C188.33 333.809 188.259 333.784 188.201 333.737C188.143 333.691 188.103 333.627 188.087 333.554L187.16 329.399C187.15 329.357 187.149 329.313 187.157 329.271C187.164 329.229 187.18 329.188 187.203 329.152C187.226 329.115 187.256 329.084 187.291 329.059C187.326 329.035 187.366 329.017 187.408 329.008C187.45 328.998 187.493 328.997 187.536 329.005C187.578 329.012 187.619 329.028 187.655 329.051C187.691 329.074 187.722 329.104 187.747 329.14C187.772 329.175 187.789 329.215 187.799 329.257L188.722 333.437C188.732 333.479 188.733 333.523 188.725 333.566C188.718 333.609 188.702 333.65 188.679 333.686C188.656 333.723 188.625 333.755 188.59 333.779C188.554 333.804 188.514 333.821 188.471 333.83L188.404 333.809Z" fill="url(#paint34_linear)"/>
    </g>
    <path opacity="0.55" d="M191.884 375.294H190.806C190.71 373.73 190.618 372.2 190.527 370.666C190.314 367.129 190.109 363.592 189.904 360.055C189.883 359.637 189.7 359.495 189.349 359.311C188.483 358.899 187.67 358.386 186.926 357.781C186.538 357.421 186.249 356.967 186.088 356.462C185.927 355.957 185.899 355.419 186.008 354.901C186.085 354.349 186.366 353.846 186.795 353.491C187.224 353.136 187.77 352.954 188.326 352.982C188.871 352.945 189.41 353.114 189.836 353.455C190.263 353.796 190.547 354.285 190.631 354.825C190.79 355.912 190.831 357.016 190.886 358.111C190.886 358.529 191.011 358.726 191.445 358.722C192.281 358.722 193.154 358.722 194.006 358.722C194.482 358.722 194.636 358.546 194.649 358.057C194.678 357.003 194.749 355.967 194.874 354.901C194.916 354.468 195.092 354.058 195.377 353.73C195.663 353.402 196.043 353.171 196.466 353.069C196.886 352.925 197.338 352.903 197.77 353.007C198.202 353.111 198.596 353.335 198.905 353.655C199.686 354.453 199.707 355.427 199.393 356.426C198.917 357.957 197.723 358.759 196.32 359.273C196.103 359.32 195.911 359.443 195.778 359.619C195.644 359.796 195.579 360.014 195.593 360.235C195.367 364.453 195.112 368.672 194.862 372.89C194.816 373.676 194.757 374.466 194.703 375.29H193.642L194.532 359.821H190.994L191.884 375.294ZM195.718 358.245C197.339 357.919 198.521 356.61 198.466 355.268C198.468 354.957 198.354 354.656 198.146 354.424C197.939 354.193 197.652 354.046 197.343 354.014C197.185 353.987 197.023 353.991 196.867 354.027C196.711 354.063 196.563 354.129 196.433 354.222C196.303 354.316 196.193 354.434 196.109 354.571C196.024 354.707 195.968 354.859 195.944 355.018C195.818 356.1 195.789 357.171 195.718 358.245ZM189.808 358.274C189.737 357.183 189.7 356.159 189.595 355.139C189.582 354.974 189.535 354.813 189.458 354.667C189.38 354.52 189.274 354.391 189.145 354.287C189.016 354.184 188.867 354.107 188.707 354.063C188.548 354.019 188.381 354.008 188.217 354.031C187.886 354.055 187.578 354.209 187.36 354.459C187.142 354.71 187.033 355.037 187.056 355.369C187.047 356.656 188.104 357.798 189.808 358.283V358.274Z" fill="white"/>
    <path d="M253.801 506.269H245.627C245.627 506.269 242.319 509.985 241.192 511.202C240.592 511.832 240.203 512.634 240.08 513.496C239.958 514.358 240.107 515.237 240.507 516.01L244.391 523.271H254.995L258.88 516.01C259.283 515.238 259.436 514.36 259.317 513.497C259.198 512.635 258.813 511.831 258.216 511.198C257.109 510.002 253.801 506.269 253.801 506.269Z" fill="#F59E35"/>
    <path d="M255.597 500.257C255.517 500.088 255.405 499.937 255.267 499.811C255.129 499.686 254.967 499.589 254.791 499.526C254.616 499.463 254.429 499.435 254.243 499.445C254.056 499.454 253.874 499.5 253.705 499.58L252.753 500.031V499.053C252.753 498.252 252.435 497.485 251.87 496.919C251.304 496.353 250.537 496.035 249.737 496.035C248.938 496.035 248.171 496.353 247.605 496.919C247.04 497.485 246.722 498.252 246.722 499.053V506.265H252.753V503.175L254.92 502.147C255.26 501.985 255.522 501.696 255.649 501.342C255.776 500.988 255.757 500.597 255.597 500.257Z" fill="#133E2E"/>
    <path d="M244.458 511.143C244.633 511.143 244.775 511.001 244.775 510.825C244.775 510.65 244.633 510.508 244.458 510.508C244.283 510.508 244.141 510.65 244.141 510.825C244.141 511.001 244.283 511.143 244.458 511.143Z" fill="#840202"/>
    <path d="M246.722 521.164C246.897 521.164 247.039 521.022 247.039 520.847C247.039 520.671 246.897 520.529 246.722 520.529C246.546 520.529 246.404 520.671 246.404 520.847C246.404 521.022 246.546 521.164 246.722 521.164Z" fill="#840202"/>
    <path d="M247.286 510.027C247.597 510.027 247.849 509.774 247.849 509.463C247.849 509.151 247.597 508.898 247.286 508.898C246.974 508.898 246.722 509.151 246.722 509.463C246.722 509.774 246.974 510.027 247.286 510.027Z" fill="#840202"/>
    <path d="M254.933 514.087C255.244 514.087 255.496 513.834 255.496 513.522C255.496 513.21 255.244 512.958 254.933 512.958C254.621 512.958 254.369 513.21 254.369 513.522C254.369 513.834 254.621 514.087 254.933 514.087Z" fill="#840202"/>
    <path d="M253.208 518.146C253.473 518.146 253.688 517.931 253.688 517.665C253.688 517.4 253.473 517.184 253.208 517.184C252.943 517.184 252.728 517.4 252.728 517.665C252.728 517.931 252.943 518.146 253.208 518.146Z" fill="#840202"/>
    <path d="M243.894 517.017C244.206 517.017 244.458 516.765 244.458 516.453C244.458 516.141 244.206 515.889 243.894 515.889C243.583 515.889 243.33 516.141 243.33 516.453C243.33 516.765 243.583 517.017 243.894 517.017Z" fill="#840202"/>
    <path d="M247.536 515.086C247.711 515.086 247.853 514.943 247.853 514.768C247.853 514.592 247.711 514.45 247.536 514.45C247.361 514.45 247.219 514.592 247.219 514.768C247.219 514.943 247.361 515.086 247.536 515.086Z" fill="#840202"/>
    <path d="M255.251 511.143C255.426 511.143 255.568 511.001 255.568 510.825C255.568 510.65 255.426 510.508 255.251 510.508C255.075 510.508 254.933 510.65 254.933 510.825C254.933 511.001 255.075 511.143 255.251 511.143Z" fill="#840202"/>
    <path d="M248.547 519.275C248.722 519.275 248.864 519.133 248.864 518.957C248.864 518.782 248.722 518.639 248.547 518.639C248.371 518.639 248.229 518.782 248.229 518.957C248.229 519.133 248.371 519.275 248.547 519.275Z" fill="#840202"/>
    <path d="M250.03 518.217C250.205 518.217 250.347 518.075 250.347 517.899C250.347 517.724 250.205 517.582 250.03 517.582C249.854 517.582 249.712 517.724 249.712 517.899C249.712 518.075 249.854 518.217 250.03 518.217Z" fill="#840202"/>
    <path d="M253.852 522.498C254.027 522.498 254.169 522.356 254.169 522.18C254.169 522.005 254.027 521.863 253.852 521.863C253.676 521.863 253.534 522.005 253.534 522.18C253.534 522.356 253.676 522.498 253.852 522.498Z" fill="#840202"/>
    <path d="M252.093 510.826C252.268 510.826 252.41 510.683 252.41 510.508C252.41 510.332 252.268 510.19 252.093 510.19C251.917 510.19 251.775 510.332 251.775 510.508C251.775 510.683 251.917 510.826 252.093 510.826Z" fill="#840202"/>
    <path d="M251.776 514.404C251.951 514.404 252.093 514.262 252.093 514.087C252.093 513.911 251.951 513.769 251.776 513.769C251.6 513.769 251.458 513.911 251.458 514.087C251.458 514.262 251.6 514.404 251.776 514.404Z" fill="#840202"/>
    <path d="M251.776 521.482C251.951 521.482 252.093 521.34 252.093 521.164C252.093 520.989 251.951 520.847 251.776 520.847C251.6 520.847 251.458 520.989 251.458 521.164C251.458 521.34 251.6 521.482 251.776 521.482Z" fill="#840202"/>
    <path d="M255.497 517.335C255.673 517.335 255.815 517.193 255.815 517.017C255.815 516.842 255.673 516.699 255.497 516.699C255.322 516.699 255.18 516.842 255.18 517.017C255.18 517.193 255.322 517.335 255.497 517.335Z" fill="#840202"/>
    <path d="M249.662 497.276C250.296 497.276 250.81 496.698 250.81 495.984C250.81 495.271 250.296 494.693 249.662 494.693C249.028 494.693 248.513 495.271 248.513 495.984C248.513 496.698 249.028 497.276 249.662 497.276Z" fill="#E8443C"/>
    <path d="M252.857 497.138C252.987 496.662 252.75 496.181 252.327 496.066C251.905 495.95 251.456 496.242 251.326 496.719C251.196 497.195 251.433 497.676 251.855 497.791C252.278 497.907 252.726 497.615 252.857 497.138Z" fill="#E8443C"/>
    <path d="M223.107 390.377H243.454V403.422H223.107V390.377Z" fill="#B8B8E8"/>
    <path d="M223.107 390.377H243.454L233.281 399.612L223.107 390.377Z" fill="#9595CB"/>
    <defs>
        <linearGradient id="paint0_linear" x1="85.8337" y1="474.881" x2="96.7262" y2="474.881" gradientUnits="userSpaceOnUse">
            <stop offset="0.03" stop-color="#B4BFEB"/>
            <stop offset="0.37" stop-color="#C3CDF0"/>
            <stop offset="1" stop-color="#E9EFFD"/>
        </linearGradient>
        <linearGradient id="paint1_linear" x1="126.504" y1="451.738" x2="131.702" y2="498.232" gradientUnits="userSpaceOnUse">
            <stop offset="0.07" stop-color="#E9DDCC"/>
            <stop offset="0.8" stop-color="#E58056"/>
        </linearGradient>
        <linearGradient id="paint2_linear" x1="5906.37" y1="1505.08" x2="5901.75" y2="1422.65" gradientUnits="userSpaceOnUse">
            <stop offset="0.07" stop-color="#EBDECE"/>
            <stop offset="0.8" stop-color="#E58056"/>
        </linearGradient>
        <linearGradient id="paint3_linear" x1="141.071" y1="462.088" x2="187.222" y2="462.088" gradientUnits="userSpaceOnUse">
            <stop stop-color="white"/>
            <stop offset="1" stop-color="white"/>
        </linearGradient>
        <linearGradient id="paint4_linear" x1="11630.1" y1="970.451" x2="16730.2" y2="970.451" gradientUnits="userSpaceOnUse">
            <stop stop-color="white"/>
            <stop offset="1" stop-color="white"/>
        </linearGradient>
        <linearGradient id="paint5_linear" x1="11630.1" y1="995.045" x2="16730.2" y2="995.045" gradientUnits="userSpaceOnUse">
            <stop stop-color="white"/>
            <stop offset="1" stop-color="white"/>
        </linearGradient>
        <linearGradient id="paint6_linear" x1="11630.1" y1="1019.66" x2="16730.2" y2="1019.66" gradientUnits="userSpaceOnUse">
            <stop stop-color="white"/>
            <stop offset="1" stop-color="white"/>
        </linearGradient>
        <linearGradient id="paint7_linear" x1="187.527" y1="449.241" x2="195.993" y2="449.241" gradientUnits="userSpaceOnUse">
            <stop stop-color="#F7F7F7"/>
            <stop offset="0.03" stop-color="#C7C7C6"/>
            <stop offset="0.06" stop-color="#9F9F9E"/>
            <stop offset="0.08" stop-color="#80807F"/>
            <stop offset="0.11" stop-color="#6A6A68"/>
            <stop offset="0.13" stop-color="#5D5D5B"/>
            <stop offset="0.16" stop-color="#585856"/>
            <stop offset="0.2" stop-color="#696968"/>
            <stop offset="0.37" stop-color="#A9A9A8"/>
            <stop offset="0.51" stop-color="#D8D8D7"/>
            <stop offset="0.62" stop-color="#F4F4F4"/>
            <stop offset="0.68" stop-color="white"/>
            <stop offset="0.7" stop-color="#D4D4D3"/>
            <stop offset="0.74" stop-color="#A8A8A7"/>
            <stop offset="0.77" stop-color="#858584"/>
            <stop offset="0.8" stop-color="#6C6C6A"/>
            <stop offset="0.82" stop-color="#5D5D5B"/>
            <stop offset="0.84" stop-color="#585856"/>
        </linearGradient>
        <linearGradient id="paint8_linear" x1="3939.57" y1="10310.3" x2="5060.9" y2="11772.2" gradientUnits="userSpaceOnUse">
            <stop offset="0.07" stop-color="#E9DDCC"/>
            <stop offset="0.8" stop-color="#E58056"/>
        </linearGradient>
        <linearGradient id="paint9_linear" x1="5536.72" y1="9032.84" x2="5529.8" y2="7822.67" gradientUnits="userSpaceOnUse">
            <stop offset="0.07" stop-color="#E9DDCC"/>
            <stop offset="0.8" stop-color="#E58056"/>
        </linearGradient>
        <linearGradient id="paint10_linear" x1="10530.7" y1="8258.95" x2="10526.2" y2="6744.14" gradientUnits="userSpaceOnUse">
            <stop offset="0.07" stop-color="#E9DDCC"/>
            <stop offset="0.8" stop-color="#E58056"/>
        </linearGradient>
        <linearGradient id="paint11_linear" x1="3522.13" y1="2874.33" x2="3694.55" y2="2874.33" gradientUnits="userSpaceOnUse">
            <stop stop-color="#F7F7F7"/>
            <stop offset="0.03" stop-color="#C7C7C6"/>
            <stop offset="0.06" stop-color="#9F9F9E"/>
            <stop offset="0.08" stop-color="#80807F"/>
            <stop offset="0.11" stop-color="#6A6A68"/>
            <stop offset="0.13" stop-color="#5D5D5B"/>
            <stop offset="0.16" stop-color="#585856"/>
            <stop offset="0.2" stop-color="#696968"/>
            <stop offset="0.37" stop-color="#A9A9A8"/>
            <stop offset="0.51" stop-color="#D8D8D7"/>
            <stop offset="0.62" stop-color="#F4F4F4"/>
            <stop offset="0.68" stop-color="white"/>
            <stop offset="0.7" stop-color="#D4D4D3"/>
            <stop offset="0.74" stop-color="#A8A8A7"/>
            <stop offset="0.77" stop-color="#858584"/>
            <stop offset="0.8" stop-color="#6C6C6A"/>
            <stop offset="0.82" stop-color="#5D5D5B"/>
            <stop offset="0.84" stop-color="#585856"/>
        </linearGradient>
        <linearGradient id="paint12_linear" x1="14946.5" y1="823.126" x2="19249.4" y2="823.126" gradientUnits="userSpaceOnUse">
            <stop stop-color="white"/>
            <stop offset="1" stop-color="white"/>
        </linearGradient>
        <linearGradient id="paint13_linear" x1="14946.5" y1="836.868" x2="19249.4" y2="836.868" gradientUnits="userSpaceOnUse">
            <stop stop-color="white"/>
            <stop offset="1" stop-color="white"/>
        </linearGradient>
        <linearGradient id="paint14_linear" x1="14946.5" y1="850.588" x2="19249.4" y2="850.588" gradientUnits="userSpaceOnUse">
            <stop stop-color="white"/>
            <stop offset="1" stop-color="white"/>
        </linearGradient>
        <linearGradient id="paint15_linear" x1="14946.5" y1="864.323" x2="19249.4" y2="864.323" gradientUnits="userSpaceOnUse">
            <stop stop-color="white"/>
            <stop offset="1" stop-color="white"/>
        </linearGradient>
        <linearGradient id="paint16_linear" x1="36636.1" y1="27103.1" x2="37230.4" y2="27103.1" gradientUnits="userSpaceOnUse">
            <stop stop-color="#F2B3A5"/>
            <stop offset="0.32" stop-color="#F2B5A8"/>
            <stop offset="0.51" stop-color="#F4BCB0"/>
            <stop offset="0.67" stop-color="#F6C8BE"/>
            <stop offset="0.8" stop-color="#F9D9D2"/>
            <stop offset="0.93" stop-color="#FCEFEC"/>
            <stop offset="1" stop-color="white"/>
        </linearGradient>
        <linearGradient id="paint17_linear" x1="44.5297" y1="430.683" x2="77.6458" y2="430.683" gradientUnits="userSpaceOnUse">
            <stop offset="0.22" stop-color="white"/>
            <stop offset="1" stop-color="white"/>
        </linearGradient>
        <linearGradient id="paint18_linear" x1="29745.4" y1="-286.188" x2="32371.2" y2="-286.188" gradientUnits="userSpaceOnUse">
            <stop offset="0.22" stop-color="white"/>
            <stop offset="1" stop-color="white"/>
        </linearGradient>
        <linearGradient id="paint19_linear" x1="29745.4" y1="-273.93" x2="32371.2" y2="-273.93" gradientUnits="userSpaceOnUse">
            <stop offset="0.22" stop-color="white"/>
            <stop offset="1" stop-color="white"/>
        </linearGradient>
        <linearGradient id="paint20_linear" x1="192.673" y1="375.448" x2="192.673" y2="377.894" gradientUnits="userSpaceOnUse">
            <stop offset="0.07" stop-color="#B4AFB9"/>
            <stop offset="0.17" stop-color="#A7A5B6"/>
            <stop offset="0.44" stop-color="#898DB0"/>
            <stop offset="0.68" stop-color="#777EAC"/>
            <stop offset="0.84" stop-color="#7079AB"/>
        </linearGradient>
        <linearGradient id="paint21_linear" x1="5533.83" y1="560.704" x2="5533.83" y2="570.046" gradientUnits="userSpaceOnUse">
            <stop offset="0.07" stop-color="#B4AFB9"/>
            <stop offset="0.17" stop-color="#A7A5B6"/>
            <stop offset="0.44" stop-color="#898DB0"/>
            <stop offset="0.68" stop-color="#777EAC"/>
            <stop offset="0.84" stop-color="#7079AB"/>
        </linearGradient>
        <linearGradient id="paint22_linear" x1="5533.83" y1="568.4" x2="5533.83" y2="577.743" gradientUnits="userSpaceOnUse">
            <stop offset="0.07" stop-color="#B4AFB9"/>
            <stop offset="0.17" stop-color="#A7A5B6"/>
            <stop offset="0.44" stop-color="#898DB0"/>
            <stop offset="0.68" stop-color="#777EAC"/>
            <stop offset="0.84" stop-color="#7079AB"/>
        </linearGradient>
        <linearGradient id="paint23_linear" x1="5533.83" y1="576.098" x2="5533.83" y2="585.441" gradientUnits="userSpaceOnUse">
            <stop offset="0.07" stop-color="#B4AFB9"/>
            <stop offset="0.17" stop-color="#A7A5B6"/>
            <stop offset="0.44" stop-color="#898DB0"/>
            <stop offset="0.68" stop-color="#777EAC"/>
            <stop offset="0.84" stop-color="#7079AB"/>
        </linearGradient>
        <linearGradient id="paint24_linear" x1="5237.09" y1="937.347" x2="5237.09" y2="1007.98" gradientUnits="userSpaceOnUse">
            <stop offset="0.07" stop-color="#B4AFB9"/>
            <stop offset="0.17" stop-color="#A7A5B6"/>
            <stop offset="0.44" stop-color="#898DB0"/>
            <stop offset="0.68" stop-color="#777EAC"/>
            <stop offset="0.84" stop-color="#7079AB"/>
        </linearGradient>
        <linearGradient id="paint25_linear" x1="1381.03" y1="409.696" x2="1412.89" y2="409.696" gradientUnits="userSpaceOnUse">
            <stop offset="0.03" stop-color="#B4BFEB"/>
            <stop offset="0.37" stop-color="#C3CDF0"/>
            <stop offset="1" stop-color="#E9EFFD"/>
        </linearGradient>
        <linearGradient id="paint26_linear" x1="1638.79" y1="741.067" x2="1668.8" y2="741.067" gradientUnits="userSpaceOnUse">
            <stop offset="0.03" stop-color="#B4BFEB"/>
            <stop offset="0.37" stop-color="#C3CDF0"/>
            <stop offset="1" stop-color="#E9EFFD"/>
        </linearGradient>
        <linearGradient id="paint27_linear" x1="1673.49" y1="427.13" x2="1728" y2="427.13" gradientUnits="userSpaceOnUse">
            <stop offset="0.03" stop-color="#B4BFEB"/>
            <stop offset="0.37" stop-color="#C3CDF0"/>
            <stop offset="1" stop-color="#E9EFFD"/>
        </linearGradient>
        <linearGradient id="paint28_linear" x1="2189.92" y1="504.754" x2="2243.53" y2="504.754" gradientUnits="userSpaceOnUse">
            <stop offset="0.03" stop-color="#B4BFEB"/>
            <stop offset="0.37" stop-color="#C3CDF0"/>
            <stop offset="1" stop-color="#E9EFFD"/>
        </linearGradient>
        <linearGradient id="paint29_linear" x1="1678.4" y1="481.695" x2="1733.43" y2="481.695" gradientUnits="userSpaceOnUse">
            <stop offset="0.03" stop-color="#B4BFEB"/>
            <stop offset="0.37" stop-color="#C3CDF0"/>
            <stop offset="1" stop-color="#E9EFFD"/>
        </linearGradient>
        <linearGradient id="paint30_linear" x1="2247.51" y1="423.274" x2="2303.59" y2="423.274" gradientUnits="userSpaceOnUse">
            <stop offset="0.03" stop-color="#B4BFEB"/>
            <stop offset="0.37" stop-color="#C3CDF0"/>
            <stop offset="1" stop-color="#E9EFFD"/>
        </linearGradient>
        <linearGradient id="paint31_linear" x1="1402.25" y1="718.718" x2="1435.35" y2="718.718" gradientUnits="userSpaceOnUse">
            <stop offset="0.03" stop-color="#B4BFEB"/>
            <stop offset="0.37" stop-color="#C3CDF0"/>
            <stop offset="1" stop-color="#E9EFFD"/>
        </linearGradient>
        <linearGradient id="paint32_linear" x1="1760.78" y1="417.479" x2="1795.42" y2="417.479" gradientUnits="userSpaceOnUse">
            <stop offset="0.03" stop-color="#B4BFEB"/>
            <stop offset="0.37" stop-color="#C3CDF0"/>
            <stop offset="1" stop-color="#E9EFFD"/>
        </linearGradient>
        <linearGradient id="paint33_linear" x1="948.239" y1="364.464" x2="957.226" y2="364.464" gradientUnits="userSpaceOnUse">
            <stop offset="0.03" stop-color="#B4BFEB"/>
            <stop offset="0.37" stop-color="#C3CDF0"/>
            <stop offset="1" stop-color="#E9EFFD"/>
        </linearGradient>
        <linearGradient id="paint34_linear" x1="754.17" y1="356.87" x2="760.136" y2="356.87" gradientUnits="userSpaceOnUse">
            <stop offset="0.03" stop-color="#B4BFEB"/>
            <stop offset="0.37" stop-color="#C3CDF0"/>
            <stop offset="1" stop-color="#E9EFFD"/>
        </linearGradient>
    </defs>
</svg>
